Name,Place,Division,Sex,WeightClassKg,BodyweightKg,Age,Best3SquatKg,Best3BenchKg,Best3DeadliftKg,TotalKg,Equipment,Event
Catherine LaMantia,1,Junior 13-15,F,67.5,63.96,15,52.50,35.00,92.50,180.00,Single-ply,SBD
Monica Sparango,1,Open,F,67.5,67.13,44,145.00,120.00,166.00,430.99,Single-ply,SBD
Alison Barnhill,1,Master 40-49,F,60,56.52,44,100.00,62.50,132.50,295.00,Single-ply,SBD
Tracie Marquez,2,Master 40-49,F,90,84.28,44,67.50,52.50,100.00,220.00,Single-ply,SBD
Helene Tropp,DQ,Master 60+,F,48,47.26,68,52.50,42.50,-92.08,,Single-ply,SBD
Chris Tremblay,1,Junior 16-18,M,82.5,79.83,18,142.50,105.00,190.00,437.49,Single-ply,SBD
O'Neil Roussell,1,Junior 19-23,M,140+,162.75,21,237.50,192.50,255.00,684.99,Single-ply,SBD
Lawrence Andrews,2,Junior 19-23,M,100,97.98,21,182.50,155.00,210.00,547.50,Single-ply,SBD
Bryan Haske,3,Junior 19-23,M,100,95.71,21,142.50,107.50,210.00,460.00,Single-ply,SBD
John Woolard,DQ,Junior 19-23,M,100,93.98,23,185.00,-164.65,,,Single-ply,SBD
Charles LaMantia,1,Open,M,52,51.89,11,42.50,32.50,70.00,145.00,Single-ply,SBD
Leon Sparango,1,Open,M,82.5,79.02,34,220.00,167.50,220.00,607.49,Single-ply,SBD
Caesar Marciales,2,Open,M,82.5,80.47,26,142.50,87.50,175.00,404.99,Single-ply,SBD
Jeff Blair,1,Open,M,90,87.54,40,182.50,142.50,185.00,510.00,Single-ply,SBD
Daniel Gustafson,2,Open,M,90,87.54,39,157.50,105.00,230.00,492.50,Single-ply,SBD
Mike Tronske,1,Open,M,100,97.7,43,260.00,205.00,262.50,727.49,Single-ply,SBD
Jerry Tremblay,2,Open,M,100,96.71,44,262.50,182.50,265.00,709.99,Single-ply,SBD
Jason Kelske,3,Open,M,100,99.06,25,227.50,182.50,290.00,699.99,Single-ply,SBD
Davon Brazil,4,Open,M,100,95.62,33,215.00,182.50,282.50,679.99,Single-ply,SBD
Shaun Myers,5,Open,M,100,96.16,32,192.50,150.00,227.50,569.99,Single-ply,SBD
Daniel Simpson,6,Open,M,100,96.43,27,142.50,120.00,195.00,457.49,Single-ply,SBD
James Campbell,7,Open,M,100,92.35,31,112.50,100.00,180.00,392.50,Single-ply,SBD
Russ Ryan,1,Open,M,110,106.14,32,185.00,147.50,227.50,560.00,Single-ply,SBD
Robert Speno,1,Open,M,125,123.56,38,320.00,235.00,277.50,832.49,Single-ply,SBD
Ryan Girard,2,Open,M,125,112.49,31,207.50,305.00,275.00,787.49,Single-ply,SBD
Emilio Paez,3,Open,M,125,124.1,27,287.50,172.50,275.00,734.99,Single-ply,SBD
Mike Tronske,1,Master 40-49,M,100,97.7,43,260.00,205.00,262.50,727.49,Single-ply,SBD
Mark Menslage,2,Master 40-49,M,125,115.03,42,265.00,177.50,260.00,702.49,Single-ply,SBD
Dan Gilliland,3,Master 40-49,M,75,71.21,41,190.00,122.50,205.00,517.49,Single-ply,SBD
Doug Hester,4,Master 40-49,M,125,124.19,44,215.00,185.00,237.50,637.49,Single-ply,SBD
Darrell Robideau,5,Master 40-49,M,90,88.36,42,195.00,160.00,207.50,562.50,Single-ply,SBD
Scott Hamilton,6,Master 40-49,M,125,111.13,42,200.00,182.50,227.50,610.00,Single-ply,SBD
Kenny Croxdale,1,Master 50-59,M,90,89.9,59,215.00,162.50,240.00,617.49,Single-ply,SBD
Edwin Lewis,2,Master 50-59,M,90,88.72,58,205.00,115.00,182.50,502.49,Single-ply,SBD
Lothar Vallot,3,Master 50-59,M,90,89.18,55,115.00,102.50,142.50,360.00,Single-ply,SBD
Jeremy Neher,4,Master 50-59,M,100,91.08,53,115.00,72.50,137.50,325.00,Single-ply,SBD
Shane O'Neill,1,Master 60+,M,90,83.82,64,182.50,122.50,190.00,495.00,Single-ply,SBD
Larry Manly,2,Master 60+,M,82.5,78.65,71,120.00,97.50,147.50,365.00,Single-ply,SBD
Bonnie Aerts,1,Open,F,52,50.35,48,,45.00,,45.00,Single-ply,B
Lisa Hislop,1,Open,F,82.5,80.47,31,,50.00,,50.00,Single-ply,B
Jolene Jessie,DQ,Open,F,90+,98.7,48,,-62.14,,,Single-ply,B
Monica Sparango,1,Master 40-49,F,67.5,67.13,44,,120.00,,120.00,Single-ply,B
Bonnie Aerts,2,Master 40-49,F,52,50.35,48,,45.00,,45.00,Single-ply,B
Anna Zeinun,3,Master 40-49,F,82.5,79.74,41,,37.50,,37.50,Single-ply,B
Helene Tropp,1,Master 60+,F,48,47.26,68,,42.50,,42.50,Single-ply,B
Hunter Hernandez,1,Junior 13-15,M,52,49.08,15,,60.00,,60.00,Single-ply,B
Jonathan Hoffmann,1,Junior 19-23,M,110,109.86,19,,230.00,,230.00,Single-ply,B
Brady Jones,2,Junior 19-23,M,100,97.61,19,,150.00,,150.00,Single-ply,B
Brandon Castaneda,3,Junior 19-23,M,82.5,79.11,19,,100.00,,100.00,Single-ply,B
Bruce Mendoza,1,Open,M,90,88.9,39,,220.00,,220.00,Single-ply,B
Brandon Littlefield,2,Open,M,90,86.45,30,,197.50,,197.50,Single-ply,B
Buck Drew,3,Open,M,90,88.63,35,,192.50,,192.50,Single-ply,B
Anatoli Kaminsky,4,Open,M,90,87.82,37,,150.00,,150.00,Single-ply,B
Hoddy Fritz,5,Open,M,90,82.92,41,,132.50,,132.50,Single-ply,B
Cory Dexter,1,Open,M,110,108.86,33,,297.50,,297.50,Single-ply,B
Ryan Girard,1,Open,M,125,112.49,31,,305.00,,305.00,Single-ply,B
Ernie Dela Torre,2,Open,M,125,119.57,38,,230.00,,230.00,Single-ply,B
Dennis Reneau,3,Open,M,125,110.5,36,,215.00,,215.00,Single-ply,B
Manuel Robles,4,Open,M,125,119.39,30,,197.50,,197.50,Single-ply,B
Michael Borunda,DQ,Open,M,125,111.04,26,,-147.42,,,Single-ply,B
Roberto Gutierrez,1,Open,M,140,139.89,32,,227.50,,227.50,Single-ply,B
Alan Aerts,2,Open,M,140,125.55,51,,200.00,,200.00,Single-ply,B
Darrell Robideau,1,Master 40-49,M,90,88.36,42,,160.00,,160.00,Single-ply,B
Alan Aerts,1,Master 50-59,M,140,125.55,51,,200.00,,200.00,Single-ply,B
Paul Dyer,2,Master 50-59,M,90,89.27,54,,100.00,,100.00,Single-ply,B
Jeremy Neher,3,Master 50-59,M,100,91.08,53,,72.50,,72.50,Single-ply,B
Larry Negriff,1,Master 60+,M,100,98.16,66,,170.00,,170.00,Single-ply,B
Danny Herrera,2,Master 60+,M,125,115.94,70,,137.50,,137.50,Single-ply,B
Larry Manly,3,Master 60+,M,82.5,78.65,71,,97.50,,97.50,Single-ply,B
Phil Crawford,4,Master 60+,M,125,115.03,62,,127.50,,127.50,Single-ply,B
Bonnie Aerts,1,Open,F,52,50.35,48,,,87.50,87.50,Single-ply,D
Lisa Hislop,1,Open,F,82.5,80.47,31,,,110.00,110.00,Single-ply,D
Jolene Jessie,DQ,Open,F,90+,98.7,48,,,-99.79,,Single-ply,D
Monica Sparango,1,Master 40-49,F,67.5,67.13,44,,,166.00,166.00,Single-ply,D
Bonnie Aerts,2,Master 40-49,F,52,50.35,48,,,87.50,87.50,Single-ply,D
Helene Tropp,DQ,Master 60+,F,48,47.26,68,,,-92.08,,Single-ply,D
Chris Tremblay,1,Junior 16-18,M,82.5,79.83,18,,,190.00,190.00,Single-ply,D
Brady Jones,1,Junior 19-23,M,100,97.61,19,,,207.50,207.50,Single-ply,D
Dan Gilliland,1,Open,M,75,71.21,41,,,205.00,205.00,Single-ply,D
Caesar Marciales,1,Open,M,82.5,80.47,26,,,175.00,175.00,Single-ply,D
Chris Cei,1,Open,M,90,89.36,35,,,240.00,240.00,Single-ply,D
Daniel Gustafson,2,Open,M,90,87.54,39,,,230.00,230.00,Single-ply,D
Brandon Littlefield,3,Open,M,90,86.45,30,,,212.50,212.50,Single-ply,D
Anatoli Kaminsky,4,Open,M,90,87.82,37,,,200.00,200.00,Single-ply,D
Dave Willets,DQ,Open,M,90,89.72,43,,,-159.66,,Single-ply,D
Adam Harris,1,Open,M,100,97.61,37,,,280.00,280.00,Single-ply,D
Phil Andrews,1,Open,M,125,116.85,52,,,325.00,325.00,Single-ply,D
Michael Borunda,2,Open,M,125,111.04,26,,,230.00,230.00,Single-ply,D
Alan Aerts,1,Open,M,140,125.55,51,,,232.50,232.50,Single-ply,D
Jerry Tremblay,1,Master 40-49,M,100,96.71,44,,,265.00,265.00,Single-ply,D
Mark Schultz,2,Master 40-49,M,67.5,64.59,49,,,187.50,187.50,Single-ply,D
Dan Gilliland,3,Master 40-49,M,75,71.21,41,,,205.00,205.00,Single-ply,D
Darrell Robideau,4,Master 40-49,M,90,88.36,42,,,207.50,207.50,Single-ply,D
Phil Andrews,1,Master 50-59,M,125,116.85,52,,,325.00,325.00,Single-ply,D
Alan Aerts,2,Master 50-59,M,140,125.55,51,,,232.50,232.50,Single-ply,D
Roger Hill,1,Master 60+,M,75,71.67,73,,,187.50,187.50,Single-ply,D
Vladzimir Tsatsulin,2,Master 60+,M,82.5,81.01,70,,,165.00,165.00,Single-ply,D
Roy Taylor,3,Master 60+,M,82.5,75.66,67,,,160.00,160.00,Single-ply,D
