Place,Name,Sex,Event,Division,WeightClassKg,Equipment,BirthYear,BodyweightKg,Squat1Kg,Squat2Kg,Squat3Kg,Best3SquatKg,Bench1Kg,Bench2Kg,Bench3Kg,Best3BenchKg,Deadlift1Kg,Deadlift2Kg,Deadlift3Kg,Best3DeadliftKg,TotalKg
1,Miriam Rodríguez Martínez,F,SBD,SNR,63,Raw,1986,58.60,87.5,-92.5,-92.5,87.5,52.5,-57.5,57.5,57.5,110,-117.5,-117.5,110,255.0
1,Rubén De Paz Patiño,M,SBD,SNR,74,Raw,1988,71.50,155,165,175,175,100,110,-120,110,165,175,190,190,475.0
2,Iván Gorrochategui Cosio,M,SBD,SNR,83,Raw,1988,81.00,-145,150,160,160,105,110,115,115,190,200,210,210,485.0
3,Guillermo Martin Manzano,M,SBD,SNR,105,Raw,1989,102.80,165,177.5,-182.5,177.5,130,135,-140,135,195,207.5,217.5,217.5,530.0
4,Miguel Barrio López,M,SBD,SNR,120,Raw,1986,109.40,140,150,-155,150,110,-120,120,120,190,210,230,230,500.0
5,Andrés Doncel Fernández,M,SBD,SNR,83,Raw,1991,82.50,140,-150,-155,140,90,97.5,100,100,160,165,-170,165,405.0