Event,Sex,Name,State,BodyweightKg,WeightClassKg,Division,Best3SquatKg,Best3BenchKg,Best3DeadliftKg,TotalKg,Equipment,Place
SBD,M,Travis Bloomer,MB,129.6,125+,Open,245.0,225.0,305.0,775.0,Single-ply,1
SBD,M,Ed Dufour,MB,108.5,110,Open,227.5,227.5,227.5,682.5,Single-ply,1
SBD,M,Harvey Hanec,MB,94.3,100,Master 3,182.5,142.5,165.0,490.0,Single-ply,1
SBD,M,Brock Haywood,MB,123.3,125,Master 1,255.0,170.0,240.0,665.0,Single-ply,1
SBD,M,Jesse Kolb,MB,73.8,75,Junior,165.0,102.5,180.0,447.5,Single-ply,1
B,M,Shaun Caruk,MB,133.2,125+,Open,,237.5,,237.5,Single-ply,1
